### #  # ###  #  #  ### ### ###  #   #    ###  #### #     ##   ##   ##  ### ###  ##  #  #
 #  ## # #  # #  # #     #  #  #  # #     #  # #    #    #  # #  # #  #  #   #  #  # ## #
 #  # ## #  # #  #   #   #  ###    #      ###  ##   #    #  # #    ####  #   #  #  # # ##
 #  #  # #  # #  #    #  #  #  #   #      #  # #    #    #  # #  # #  #  #   #  #  # #  #
### #  # ###   ##  ###   #  #  #   #      #  # #### ####  ##   ##  #  #  #  ###  ##  #  #

#Category only allowed for SOV
SOV_industry_relocation = {

	SOV_relocate_industry_from_moscow = {

		icon = generic_construction

		highlight_state_targets = {
			state = 219
		}	

		available = {
			219 = { #Moscow
				is_owned_and_controlled_by = SOV
				arms_factory > 5
				industrial_complex > 1
			} 
			573 = { is_owned_and_controlled_by = SOV } #Zlatoust
			582 = { is_owned_and_controlled_by = SOV } #Magnitogorsk
		}

		fire_only_once = yes

		cost = 25
		days_remove = 15

		modifier = {
			
		}

		ai_will_do = {
			factor = 1
			modifier = {
				factor = 200 # oh shit they are getting close!
				OR = {
					AND = {
						owns_state = 246
						NOT = { controls_state = 246 }
					}
					AND = {
						owns_state = 242
						NOT = { controls_state = 242 }
					}
					AND = {
						owns_state = 205
						NOT = { controls_state = 205 }
					}
					AND = {
						owns_state = 223
						NOT = { controls_state = 223 }
					}
					AND = {
						owns_state = 243
						NOT = { controls_state = 243 }
					}
					AND = {
						owns_state = 224
						NOT = { controls_state = 224 }
					}
					AND = {
						owns_state = 222
						NOT = { controls_state = 222 }
					}
				}
			}

			modifier = {
				factor = 0
				SOV_save_pp_for_manpower_trouble = yes
			}
		}

		visible = {
			has_war = yes
		}

		remove_effect = {
			if = {
				limit = {
					controls_state = 219
				}
				219 = { #Moscow
					remove_building = {
						type = arms_factory
						level = 6
					}
					remove_building = {
						type = industrial_complex
						level = 2
					}
				}
				573 = { #Zlatoust
					add_extra_state_shared_building_slots = 4
					add_building_construction = {
						type = arms_factory
						level = 3
						instant_build = yes
					}
					add_building_construction = {
						type = industrial_complex
						level = 1
						instant_build = yes
					}
	
					hidden_effect = {
						damage_building = { type = arms_factory damage = 0.3 }
						damage_building = { type = industrial_complex damage = 0.1 }
					}
				}
				582 = { #Magnitogorsk
					add_extra_state_shared_building_slots = 4
					add_building_construction = {
						type = arms_factory
						level = 3
						instant_build = yes
					}
					add_building_construction = {
						type = industrial_complex
						level = 1
						instant_build = yes
					}
				
					hidden_effect = {
						damage_building = { type = arms_factory damage = 0.3 }
						damage_building = { type = industrial_complex damage = 0.1 }
					}
				}
				custom_effect_tooltip = relocate_industry_repair
			}
			custom_effect_tooltip = SOV_relocate_industry_from_moscow_tt
		}
	}

	SOV_relocate_industry_from_leningrad = {

		icon = generic_construction

		highlight_state_targets = {
			state = 195
		}

		available = {
			195 = { #Leningrad
				is_owned_and_controlled_by = SOV
				arms_factory > 4
				industrial_complex > 0
			}
			573 = { is_owned_and_controlled_by = SOV } #Zlatoust
			582 = { is_owned_and_controlled_by = SOV } #Magnitogorsk
		}

		fire_only_once = yes

		cost = 25
		days_remove = 15

		modifier = {
			
		}

		ai_will_do = {
			factor = 1
			modifier = {
				factor = 200 # oh shit they are getting close!
				OR = {
					AND = {
						owns_state = 208
						NOT = { controls_state = 208 }
					}
					AND = {
						owns_state = 209
						NOT = { controls_state = 209 }
					}
					AND = {
						owns_state = 244
						NOT = { controls_state = 244 }
					}
					AND = {
						owns_state = 263
						NOT = { controls_state = 263 }
					}
					AND = {
						owns_state = 191
						NOT = { controls_state = 191 }
					}
					AND = {
						owns_state = 146
						NOT = { controls_state = 146 }
					}
				}
			}
			modifier = {
				factor = 0
				SOV_save_pp_for_manpower_trouble = yes
			}
		}

		visible = {
			has_war = yes
		}

		remove_effect = {
			if = {
				limit = {
					controls_state = 195
				}
				195 = { #Leningrad
					remove_building = {
						type = arms_factory
						level = 5
					}
					remove_building = {
						type = industrial_complex
						level = 1
					}
				}
	
				573 = { #Zlatoust
					add_extra_state_shared_building_slots = 3
					add_building_construction = {
						type = arms_factory
						level = 3
						instant_build = yes
					}
	
					hidden_effect = {			
						damage_building = { type = arms_factory damage = 0.3 }
					}
				}
				582 = { #Magnitogorsk
					add_extra_state_shared_building_slots = 3
					add_building_construction = {
						type = arms_factory
						level = 2
						instant_build = yes
					}
					add_building_construction = {
						type = industrial_complex
						level = 1
						instant_build = yes
					}
	
					hidden_effect = {			
						damage_building = { type = arms_factory damage = 0.2 }
						damage_building = { type = industrial_complex damage = 0.1 }
					}
				}
				custom_effect_tooltip = relocate_industry_repair
			}
			custom_effect_tooltip = SOV_relocate_industry_from_leningrad_tt
		}
	}

	SOV_relocate_industry_from_smolensk = {

		icon = generic_construction

		highlight_state_targets = {
			state = 242
		}

		available = {
			242 = { #Smolensk
				is_owned_and_controlled_by = SOV
				industrial_complex > 1
			}
			573 = { is_owned_and_controlled_by = SOV } #Zlatoust
			582 = { is_owned_and_controlled_by = SOV } #Magnitogorsk
		}

		fire_only_once = yes

		cost = 25
		days_remove = 15

		modifier = {
			
		}

		ai_will_do = {
			factor = 1
			modifier = {
				factor = 200 # oh shit they are getting close!
				OR = {
					AND = {
						owns_state = 210
						NOT = { controls_state = 210 }
					}
					AND = {
						owns_state = 207
						NOT = { controls_state = 207 }
					}
					AND = {
						owns_state = 206
						NOT = { controls_state = 206 }
					}
					AND = {
						owns_state = 241
						NOT = { controls_state = 241 }
					}
					AND = {
						owns_state = 243
						NOT = { controls_state = 243 }
					}
					AND = {
						owns_state = 205
						NOT = { controls_state = 205 }
					}
					AND = {
						owns_state = 246
						NOT = { controls_state = 246 }
					}
				}
			}
			modifier = {
				factor = 0
				SOV_save_pp_for_manpower_trouble = yes
			}
		}

		visible = {
			has_war = yes
		}

		remove_effect = {
			if = {
				limit = {
					controls_state = 242
				}
				242 = { #Smolensk
					remove_building = {
						type = industrial_complex
						level = 2
					}
				}
				573 = { #Zlatoust
					add_extra_state_shared_building_slots = 1				
					add_building_construction = {
						type = industrial_complex
						level = 1
						instant_build = yes
					}
	
					hidden_effect = {			
						damage_building = { type = industrial_complex damage = 0.1 }
					}
				}
				582 = { #Magnitogorsk
					add_extra_state_shared_building_slots = 1
					add_building_construction = {
						type = industrial_complex
						level = 1
						instant_build = yes
					}
				
					hidden_effect = {
						damage_building = { type = industrial_complex damage = 0.1 }
					}
				}
				custom_effect_tooltip = relocate_industry_repair
			}
			custom_effect_tooltip = SOV_relocate_industry_from_smolensk_tt
		}
	}
	move_leningrad_aluminium_plant = { #195

		icon = aluminium
		
		highlight_state_targets = {
			state = 195
		}

		allowed = {
			#Everyone
		}

		available = {
			has_full_control_of_state = 195
			has_full_control_of_state = 569
			
		}

		visible = {
			controls_state = 195
			controls_state = 569
			195 = { has_state_flag = leningrad_aluminium_developed }
			has_war = yes
		}

		fire_only_once = yes

		cost = 25
		days_remove = 15

		modifier = {
			
		}

		ai_will_do = {
			factor = 0.5
			modifier = {
				factor = 200 # oh shit they are getting close!
				OR = {
					AND = {
						owns_state = 208
						NOT = { controls_state = 208 }
					}
					AND = {
						owns_state = 209
						NOT = { controls_state = 209 }
					}
					AND = {
						owns_state = 244
						NOT = { controls_state = 244 }
					}
					AND = {
						owns_state = 263
						NOT = { controls_state = 263 }
					}
					AND = {
						owns_state = 191
						NOT = { controls_state = 191 }
					}
					AND = {
						owns_state = 146
						NOT = { controls_state = 146 }
					}
				}
			}
			modifier = {
				factor = 0
				SOV_save_pp_for_manpower_trouble = yes
			}
		}

		remove_effect = {
			if = {
				limit = {
					controls_state = 195
				}
				195 = {
					add_resource = {
						type = aluminium
						amount = -12
					}				
				}
				569 = {
					add_resource = {
						type = aluminium
						amount = 12
					}
				}
			}
			custom_effect_tooltip = SOV_relocate_industry_from_leningrad_tt
		}
	}
}

#Category only allowed for SOV
SOV_great_patriotic_war = {

	SOV_order_227 = {

		icon = generic_army_support

		available = {
			has_war = yes
			any_enemy_country = {
				is_major = yes
			}
			has_civil_war = no
			surrender_progress > 0.15
		}

		cost = 50
		fire_only_once = yes
		visible = {
			has_war = yes
			any_enemy_country = {
				is_major = yes
			}
			#surrender_progress > 0
		}

		days_remove = 720

		modifier = {
			army_core_defence_factor = 0.25
			mobilization_speed = 0.15
		}

		ai_will_do = {
			factor = 1
			modifier = {
				surrender_progress > 0.25
				factor = 10
			}
		}
	}
	SOV_scorched_earth = {

		icon = generic_scorched_earth

		available = {
			has_war = yes
			any_enemy_country = {
				is_major = yes
			}
			surrender_progress > 0
		}

		cost = 50
		fire_only_once = yes
		visible = {
			has_war = yes
			any_enemy_country = {
				is_major = yes
			}
			surrender_progress > 0
		}

		complete_effect = {
			set_country_flag = SOV_scorched_earth
			unlock_decision_tooltip = SOV_scorched_earth_baltics
			unlock_decision_tooltip = SOV_scorched_earth_byelorussia
			unlock_decision_tooltip = SOV_scorched_earth_ukraine
			unlock_decision_tooltip = SOV_scorched_earth_stalingrad
			unlock_decision_tooltip = SOV_scorched_earth_caucasus
			unlock_decision_tooltip = SOV_scorched_earth_moscow
		}

		ai_will_do = {
			factor = 1

			modifier = {
				factor = 0
				SOV_save_pp_for_manpower_trouble = yes
			}
		}
	}
	SOV_scorched_earth_baltics = {

		icon = generic_scorched_earth

		available = {
			has_war = yes
			has_country_flag = SOV_scorched_earth
			has_equipment = {
				support_equipment > 24
			}
		}

		cost = 50
		fire_only_once = yes
		visible = {
			has_war = yes
			OR = {
				controls_state = 189
				controls_state = 11
				controls_state = 190
				controls_state = 12
				controls_state = 191
				controls_state = 13
			}
			has_country_flag = SOV_scorched_earth
		}

		complete_effect = {
			add_equipment_to_stockpile = {
				type = support_equipment_1
				amount = -25
			}
			if = {
				limit = {
					controls_state = 189
				}
				189 = {
					damage_building = {
						type = infrastructure
						damage = 3
					}
				}
			}
			if = {
				limit = {
					controls_state = 11
				}
				11 = {
					damage_building = {
						type = infrastructure
						damage = 3
					}
				}
			}
			if = {
				limit = {
					controls_state = 190
				}
				190 = {
					damage_building = {
						type = infrastructure
						damage = 3
					}
				}
			}
			if = {
				limit = {
					controls_state = 12
				}
				12 = {
					damage_building = {
						type = infrastructure
						damage = 3
					}
				}
			}
			if = {
				limit = {
					controls_state = 191
				}
				191 = {
					damage_building = {
						type = infrastructure
						damage = 3
					}
				}
			}
			if = {
				limit = {
					controls_state = 13
				}
				13 = {
					damage_building = {
						type = infrastructure
						damage = 3
					}
				}
			}
		}

		ai_will_do = {
			factor = 1
		}
	}
	SOV_scorched_earth_byelorussia = {

		icon = generic_scorched_earth

		available = {
			has_war = yes
			has_country_flag = SOV_scorched_earth
			has_equipment = {
				support_equipment > 49
			}
		}

		cost = 75
		fire_only_once = yes
		visible = {
			has_war = yes
			has_country_flag = SOV_scorched_earth
			any_of = {
				array = BLR.core_states
				var:v = { is_controlled_by = SOV }
			}
		}

		complete_effect = {
			add_equipment_to_stockpile = {
				type = support_equipment_1
				amount = -50
			}
			every_state = {
				limit = {
					is_core_of = BLR
					is_controlled_by = SOV
				}
				damage_building = {
					type = infrastructure
					damage = 3
				}
			}
		}

		ai_will_do = {
			factor = 1
		}
	}
	SOV_scorched_earth_ukraine = {

		icon = generic_scorched_earth

		available = {
			has_war = yes
			has_country_flag = SOV_scorched_earth
			has_equipment = {
				support_equipment > 74
			}
		}

		cost = 75
		fire_only_once = yes
		visible = {
			has_war = yes
			has_country_flag = SOV_scorched_earth
			any_of = {
				array = UKR.core_states
				var:v = { is_controlled_by = SOV }
			}
		}

		complete_effect = {
			add_equipment_to_stockpile = {
				type = support_equipment_1
				amount = -75
			}
			every_state = {
				limit = {
					is_core_of = UKR
					is_controlled_by = SOV
				}
				damage_building = {
					type = infrastructure
					damage = 3
				}
			}
		}

		ai_will_do = {
			factor = 1
		}
	}
	SOV_scorched_earth_caucasus = {

		icon = generic_scorched_earth

		available = {
			has_war = yes
			has_country_flag = SOV_scorched_earth
			has_equipment = {
				support_equipment > 49
			}
		}

		cost = 75
		fire_only_once = yes
		visible = {
			has_war = yes
			OR = {
				420 = { CONTROLLER = { has_war_with = SOV } }
				419 = { CONTROLLER = { has_war_with = SOV } }
				353 = { CONTROLLER = { has_war_with = SOV } }
				354 = { CONTROLLER = { has_war_with = SOV } }
				137 = { CONTROLLER = { has_war_with = SOV } }
				218 = { CONTROLLER = { has_war_with = SOV } }
				238 = { CONTROLLER = { has_war_with = SOV } }
				237 = { CONTROLLER = { has_war_with = SOV } }
				236 = { CONTROLLER = { has_war_with = SOV } }
				231 = { CONTROLLER = { has_war_with = SOV } }#sneaky QA naval invasion check
				233 = { CONTROLLER = { has_war_with = SOV } }
				234 = { CONTROLLER = { has_war_with = SOV } }
			}
			has_country_flag = SOV_scorched_earth
		}

		complete_effect = {
			add_equipment_to_stockpile = {
				type = support_equipment_1
				amount = -50
			}
			if = {
				limit = {
					229 = { is_controlled_by = SOV}
				}
				229 = {
					damage_building = {
						type = infrastructure
						damage = 3
					}
				}
			}
			if = {
				limit = {
					230 = { is_controlled_by = SOV}
				}
				230 = {
					damage_building = {
						type = infrastructure
						damage = 3
					}
				}
			}
			if = {
				limit = {
					231 = { is_controlled_by = SOV}
				}
				231 = {
					damage_building = {
						type = infrastructure
						damage = 3
					}
				}
			}
			if = {
				limit = {
					232 = { is_controlled_by = SOV}
				}
				232 = {
					damage_building = {
						type = infrastructure
						damage = 3
					}
				}
			}
			if = {
				limit = {
					233 = { is_controlled_by = SOV}
				}
				233 = {
					damage_building = {
						type = infrastructure
						damage = 3
					}
				}
			}
			if = {
				limit = {
					234 = { is_controlled_by = SOV}
				}
				234 = {
					damage_building = {
						type = infrastructure
						damage = 3
					}
				}
			}
			if = {
				limit = {
					235 = { is_controlled_by = SOV}
				}
				235 = {
					damage_building = {
						type = infrastructure
						damage = 3
					}
				}
			}
		}

		ai_will_do = {
			factor = 1
		}
	}
	SOV_scorched_earth_stalingrad = {

		icon = generic_scorched_earth

		available = {
			has_war = yes
			has_country_flag = SOV_scorched_earth
			has_equipment = {
				support_equipment > 49
			}
		}

		cost = 75
		fire_only_once = yes
		visible = {
			has_war = yes
			has_country_flag = SOV_scorched_earth
			OR = {
				227 = { CONTROLLER = { has_war_with = SOV } }
				228 = { CONTROLLER = { has_war_with = SOV } }
				218 = { CONTROLLER = { has_war_with = SOV } }
				245 = { CONTROLLER = { has_war_with = SOV } }
				237 = { CONTROLLER = { has_war_with = SOV } }
				236 = { CONTROLLER = { has_war_with = SOV } }
				231 = { CONTROLLER = { has_war_with = SOV } }#sneaky QA naval invasion check
				238 = { CONTROLLER = { has_war_with = SOV } }
				260 = { CONTROLLER = { has_war_with = SOV } }
				239 = { CONTROLLER = { has_war_with = SOV } }
			}
		}

		complete_effect = {
			add_equipment_to_stockpile = {
				type = support_equipment_1
				amount = -50
			}
			if = {
				limit = {
					245 = { is_controlled_by = SOV}
				}
				245 = {
					damage_building = {
						type = infrastructure
						damage = 3
					}
				}
			}
			if = {
				limit = {
					217 = { is_controlled_by = SOV}
				}
				217 = {
					damage_building = {
						type = infrastructure
						damage = 3
					}
				}
			}
			if = {
				limit = {
					218 = { is_controlled_by = SOV}
				}
				218 = {
					damage_building = {
						type = infrastructure
						damage = 3
					}
				}
			}
			if = {
				limit = {
					238 = { is_controlled_by = SOV}
				}
				238 = {
					damage_building = {
						type = infrastructure
						damage = 3
					}
				}
			}
			if = {
				limit = {
					237 = { is_controlled_by = SOV}
				}
				237 = {
					damage_building = {
						type = infrastructure
						damage = 3
					}
				}
			}
			if = {
				limit = {
					236 = { is_controlled_by = SOV}
				}
				236 = {
					damage_building = {
						type = infrastructure
						damage = 3
					}
				}
			}
			if = {
				limit = {
					265 = { is_controlled_by = SOV}
				}
				265 = {
					damage_building = {
						type = infrastructure
						damage = 3
					}
				}
			}
		}

		ai_will_do = {
			factor = 1
		}
	}
	SOV_scorched_earth_moscow = {

		icon = generic_scorched_earth

		available = {
			has_war = yes
			has_country_flag = SOV_scorched_earth
			has_equipment = {
				support_equipment > 49
			}
		}

		cost = 75
		fire_only_once = yes
		visible = {
			has_war = yes
			has_country_flag = SOV_scorched_earth
			OR = {
				207 = { CONTROLLER = { has_war_with = SOV } }
				210 = { CONTROLLER = { has_war_with = SOV } }
				241 = { CONTROLLER = { has_war_with = SOV } }
				193 = { CONTROLLER = { has_war_with = SOV } }
				225 = { CONTROLLER = { has_war_with = SOV } }
				240 = { CONTROLLER = { has_war_with = SOV } }
			}
		}

		complete_effect = {
			add_equipment_to_stockpile = {
				type = support_equipment_1
				amount = -50
			}
			every_state = {
				limit = {
					OR = {
						state = 220
						state = 222
						state = 224
						state = 243
						state = 205
						state = 242
						state = 246
						state = 219
					}
					is_controlled_by = SOV
				}
				damage_building = {
					type = infrastructure
					damage = 3
				}
			}
			
		}

		ai_will_do = {
			factor = 1
		}
	}
	
	SOV_hero_city_moscow = {

		icon = generic_scorched_earth
		
		allowed = { original_tag = SOV }
		
		available = {
			
		}
		
		visible = {
		
		}

		cost = 75
		fire_only_once = yes

		complete_effect = {
			219 = {
				add_province_modifier = {
					static_modifiers = { soviet_hero_city }
					province = {
						all_provinces = yes
					}
				}
			}
		}

		ai_will_do = {
			factor = 1
		}
	}
	
	SOV_hero_city_leningrad = {

		icon = generic_scorched_earth
		
		allowed = { original_tag = SOV }
		
		available = {
			
		}
		
		visible = {
		
		}

		cost = 75
		fire_only_once = yes

		complete_effect = {
			195 = {
				add_province_modifier = {
					static_modifiers = { soviet_hero_city }
					province = {
						all_provinces = yes
					}
				}
			}
		}

		ai_will_do = {
			factor = 1
		}
	}
	
	SOV_hero_city_stalingrad = {

		icon = generic_scorched_earth
		
		allowed = { original_tag = SOV }
		
		available = {
			
		}
		
		visible = {
		
		}

		cost = 75
		fire_only_once = yes

		complete_effect = {
			217 = {
				add_province_modifier = {
					static_modifiers = { soviet_hero_city }
					province = {
						all_provinces = yes
					}
				}
			}
		}

		ai_will_do = {
			factor = 1
		}
	}
	
	SOV_hero_city_kiev = {

		icon = generic_scorched_earth
		
		allowed = { original_tag = SOV }
		
		available = {
			
		}
		
		visible = {
		
		}

		cost = 75
		fire_only_once = yes

		complete_effect = {
			202 = {
				add_province_modifier = {
					static_modifiers = { soviet_hero_city }
					province = {
						all_provinces = yes
					}
				}
			}
		}

		ai_will_do = {
			factor = 1
		}
	}
	
	SOV_hero_city_smolensk = {

		icon = generic_scorched_earth
		
		allowed = { original_tag = SOV }
		
		available = {
			
		}
		
		visible = {
		
		}

		cost = 75
		fire_only_once = yes

		complete_effect = {
			242 = {
				add_province_modifier = {
					static_modifiers = { soviet_hero_city }
					province = {
						all_provinces = yes
					}
				}
			}
		}

		ai_will_do = {
			factor = 1
		}
	}
	
	SOV_hero_city_minsk = {

		icon = generic_scorched_earth
		
		allowed = { original_tag = SOV }
		
		available = {
			
		}
		
		visible = {
		
		}

		cost = 75
		fire_only_once = yes

		complete_effect = {
			206 = {
				add_province_modifier = {
					static_modifiers = { soviet_hero_city }
					province = {
						all_provinces = yes
					}
				}
			}
		}

		ai_will_do = {
			factor = 1
		}
	}
	
	SOV_hero_city_tula = {

		icon = generic_scorched_earth
		
		allowed = { original_tag = SOV }
		
		available = {
			
		}
		
		visible = {
		
		}

		cost = 75
		fire_only_once = yes

		complete_effect = {
			223 = {
				add_province_modifier = {
					static_modifiers = { soviet_hero_city }
					province = {
						all_provinces = yes
					}
				}
			}
		}

		ai_will_do = {
			factor = 1
		}
	}
	
	SOV_hero_city_sevastopol = {

		icon = generic_scorched_earth
		
		allowed = { original_tag = SOV }
		
		available = {
			
		}
		
		visible = {
		
		}

		cost = 75
		fire_only_once = yes

		complete_effect = {
			137 = {
				add_province_modifier = {
					static_modifiers = { soviet_hero_city }
					province = {
						all_provinces = yes
					}
				}
			}
		}

		ai_will_do = {
			factor = 1
		}
	}
	
	SOV_hero_city_odessa = {

		icon = generic_scorched_earth
		
		allowed = { original_tag = SOV }
		
		available = {
			
		}
		
		visible = {
		
		}

		cost = 75
		fire_only_once = yes

		complete_effect = {
			192 = {
				add_province_modifier = {
					static_modifiers = { soviet_hero_city }
					province = {
						all_provinces = yes
					}
				}
			}
		}

		ai_will_do = {
			factor = 1
		}
	}
}

operations = {

	SOV_seize_manchuria = {

		icon = generic_operation

		allowed = {
			original_tag = SOV
		}

		available = {
			
		}

		cost = 25
		fire_only_once = yes
		visible = {
			
		}

		complete_effect = {
						
		}

		ai_will_do = {
			factor = 1
			
			modifier = {
				threat < 0.25
				factor = 0
			}
		}
	}
}


political_actions = {

}

SOV_second_five_year_plan = {
	
	SOV_second_5year_steel = {

		icon = steel
		
		allowed = { 
			original_tag = SOV
		}
		available = {
			FROM = { 
				infrastructure > 7 
				has_resources_amount = {
					resource = steel
					amount > 0
					state = FROM
				}
			}
			ROOT = { num_of_civilian_factories > 3 }
		}
		visible = { 
			original_tag = SOV	
			has_country_flag = SOV_second_5year_steel_decisions
			FROM = { 
				infrastructure > 7 
				has_resources_amount = {
					resource = steel
					amount > 0
					state = FROM
				}
			}
		}
		
		state_target = yes
		target_array = controlled_states
		
		highlight_state_targets = { state = FROM }
		on_map_mode = map_and_decisions_view

		cost = 10
		days_remove = 10
		
		is_good = yes
		fire_only_once = no

		modifier = {
			civilian_factory_use = 3
		}

		complete_effect = {
		
		}
		remove_effect = {
			add_resource = {
				type = steel
				amount = 5
				state = FROM
			}
		}
	}
	
	SOV_second_5year_infrastructure = {

		icon = generic_construction
		
		allowed = { 
			original_tag = SOV
		}
		available = {
			FROM = { 
				infrastructure < 7 
			}
			ROOT = { num_of_civilian_factories > 3 }
		}
		visible = { 
			original_tag = SOV	
			has_country_flag = SOV_second_5year_infra_decisions
			FROM = { 
				infrastructure < 7 
			}
		}
		
		state_target = yes
		target_array = controlled_states
		
		highlight_state_targets = { state = FROM }
		on_map_mode = map_and_decisions_view

		cost = 10
		days_remove = 10
		
		is_good = yes
		fire_only_once = no

		modifier = {
			civilian_factory_use = 3
		}

		complete_effect = {
		
		}
		remove_effect = {
			add_building_construction = {
				type = infrastructure
				level = 1
				instant_build = yes
			}
		}
	}
	
	SOV_second_5year_industry_civs = {

		icon = generic_operation

		allowed = {
			original_tag = SOV
		}

		available = {
			original_tag = SOV
			NOT = { has_country_flag = SOV_second_5year_industry_selected }
		}

		cost = 25
		fire_only_once = no
		visible = {
			original_tag = SOV
		}

		complete_effect = {
			set_country_flag = { flag = SOV_second_5year_industry_selected value = 1 days = 1 }		
		}

		ai_will_do = {
			factor = 1
			
			modifier = {
				threat < 0.25
				factor = 0
			}
		}
	}
	
	SOV_second_5year_industry_mils = {

		icon = generic_operation

		allowed = {
			original_tag = SOV
		}

		available = {
			original_tag = SOV
			NOT = { has_country_flag = SOV_second_5year_industry_selected }
		}

		cost = 25
		fire_only_once = no
		visible = {
			original_tag = SOV
		}

		complete_effect = {
			set_country_flag = { flag = SOV_second_5year_industry_selected value = 1 days = 1 }		
		}

		ai_will_do = {
			factor = 1
			
			modifier = {
				threat < 0.25
				factor = 0
			}
		}
	}
}