on_actions = {

	#FROM is war target
	on_declare_war = {
		effect = {

		}
	}

	#ROOT is new controller #FROM is old controller #FROM.FROM is state ID
	on_state_control_changed = {
		effect = {
			
		}
	}

}