strategic_region={
	id=138
	name="STRATEGICREGION_138"
	provinces={
		237 278 361 1334 1406 3280 4215 4261 4265 4311 4383 4411 4758 7281 7300 7320 7328 7373 7401 10136 10142 10185 10196 10224 10256 10329 11223 11307 12117 12200 
	}
	weather={
		
	}
}
