strategic_region={
	id=145
	name="STRATEGICREGION_145"
	provinces={
		1698 1703 1708 1766 1783 1838 1844 1943 1970 2015 2074 4682 4704 4709 4714 4770 4788 4823 4828 4843 4849 4947 4973 5016 5087 5736 7693 7702 7732 7737 7790 7792 7850 7866 7949 8042 8086 8112 10315 10545 10614 10674 10691 10839 10885 10911 12119 12524 12526 12590 12598 12601 12656 12671 12737 12864 
	}
	weather={
		
	}
}
