strategic_region={
	id=163
	name="STRATEGICREGION_163"
	provinces={
		1928 1979 2035 2142 2147 2160 2198 2204 4934 4980 4982 5008 5083 5188 5214 5216 5232 8107 8172 8175 8185 8211 8240 8254 10906 10924 10934 10956 10960 10982 10996 11010 12716 12828 12885 12902 12916 12917 12919 12939 12965 12973 13083 
	}
	weather={
		
	}
}
