strategic_region={
	id=200
	name="STRATEGICREGION_200"
	provinces={
		1257 1882 1918 2045 2053 2099 4375 4403 4407 4536 4888 4914 4964 4999 5018 5080 5102 5193 7270 7940 7988 7997 8018 8037 8041 8059 8104 9966 10490 10741 10750 10787 10796 10817 10834 10856 10865 10903 11448 12724 12732 12815 12837 12846 12890 12899 13146 
	}
	weather={
		
	}
}
