strategic_region={
	id=201
	name="STRATEGICREGION_201"
	provinces={
		2156 2162 2174 2182 2210 2212 2225 2226 5131 5146 5162 5166 5171 5179 5190 5192 5202 5228 5229 5230 8149 8157 8160 8191 8199 8213 8217 8225 8231 10938 10940 10942 10952 10970 10987 11000 12869 12914 12930 12953 12969 12979 12983 12994 12997 13086 13134 13174 13175 13195 
	}
	weather={
		
	}
}
