POL_historical_plan = {
	name = "POL historical plan"
	desc = ""

	enable = {
		original_tag = POL
		OR = {
			AND = {
				is_historical_focus_on = yes
				has_game_rule = {
					rule = POL_ai_behavior
					option = DEFAULT
				}
			}
			has_country_flag = POL_AI_RANDOM_HISTORICAL
			has_game_rule = {
				rule = POL_ai_behavior
				option = HISTORICAL
			}
		}
	}
	abort = {
		is_subject = yes
	}

	ai_national_focuses = {
		
	}

	research = {

	}

	ideas = {

	}
	traits = {
		captain_of_industry = 10
		popular_figurehead = 5
	}

	

	# Keep small, as it is used as a factor for some things (such as research needs)
	# Recommended around 1.0. Useful for relation between plans
	weight = {
		factor = 1.0
		modifier = {
			factor = 1.0
		}
	}

}