state=
{
	id=101
	name="STATE_101"
	manpower = 18000
	
	state_category = wasteland
	
	history=
	{
		buildings = {
			infrastructure = 1
			12512 ={
				naval_base = 1
			}
		}
	}
	provinces=
	{
10245 10636 12512 13058 13066 	}
}
