
state={
	id=113
	name="STATE_113" # Leinster
	manpower = 1357600
	resources={
		aluminium=0 # was: 2
		steel=2 # was: 3
	}
	
	state_category = city
	
	history={
		victory_points = {
			11293 5 
		}
		buildings = {
			infrastructure = 7
			arms_factory = 1
			industrial_complex = 5
			air_base = 3
			11293 = {
				naval_base = 6
			}
		}
	}

	provinces={
		285 303 369 3342 3359 7377 11293 11303 
	}
}
