state=
{
	id=145
	name="STATE_145"
	manpower = 27400
	
	state_category = small_island
	
	history=
	{
		buildings = {
			infrastructure = 5
			9228 = {
				naval_base = 1
			}
		}
	}
	
	provinces=	{
		9228
	}
}
