
state={
	id=441
	name="STATE_441"
	manpower = 2123700
	
	state_category = rural

	history={
		owner = ENG
		buildings = {
			infrastructure = 2
		}
	}

	provinces={
		5042 7273 7316 8005 10905 12754 12884 
	}
}
