
state={
	id=497
	name="STATE_497"
	manpower = 2950100
	
	state_category = rural
	
	resources={
		rubber=23 # was: 30
	}

	history={
		buildings = {
			infrastructure = 3
			industrial_complex = 1
			air_base = 1
			12853 = {
				naval_base = 2
			}
		}
		victory_points = {
			12853 1 
		}

	}

	provinces={
		2150 2214 2228 5153 5204 5220 10874 10984 12853 12913 12933 12947 12999 
	}
}
