
state={
	id=552
	name="STATE_552"
	manpower = 18539
	
	state_category = wasteland
	impassable = yes

	history={
		buildings = {
			infrastructure = 0
		}

	}

	provinces={
		1143 2064 7216 10127 10869 10907 12099 12733 12764 12816 
	}
}
