state={
	id=722
	name="STATE_722"
	manpower = 2371

	state_category = enclave

	history={
		buildings = {
			infrastructure = 3
			9140 = {
				naval_base = 1
			}
		}
	}
	
	provinces={
		6012 6183 9140 11142 
	}
}
