state={
	id=756
	name="STATE_756"
	provinces={
		1778 2028 4783 5076 7727 7803 7971 8102 10770 10899 12596 12820 
	}
	manpower=1000000
	buildings_max_level_factor=1.000
	state_category = wasteland
	history={
		buildings = {
			infrastructure = 1

		}
	}
}
