state={
	id=802
	name="STATE_802"
	
	state_category = rural
	
	history={
		owner = USA
		add_core_of = USA
		buildings = {
			infrastructure = 6
		}
	}
	
	provinces={
		4445 7629 9675 13158 
	}
	manpower=357000
	buildings_max_level_factor=1.000
}
